Motivation
…
print("RDF Triples (subject, predicate, object):")
#> [1] "RDF Triples (subject, predicate, object):"
print(rdf_triples)
#> # A tibble: 36 × 3
#>    subject          predicate        object                                     
#>    <chr>            <chr>            <chr>                                      
#>  1 geonames:6252001 sdmx:TIME_PERIOD "\"2020\"^^<http://www.w3.org/2001/XMLSche…
#>  2 geonames:6252001 schema:name      "United States"                            
#>  3 geonames:6252001 sdmx:OBS_VALUE   "\"21000\"^^<http://www.w3.org/2001/XMLSch…
#>  4 geonames:6251999 sdmx:TIME_PERIOD "\"2020\"^^<http://www.w3.org/2001/XMLSche…
#>  5 geonames:6251999 schema:name      "Canada"                                   
#>  6 geonames:6251999 sdmx:OBS_VALUE   "\"2000\"^^<http://www.w3.org/2001/XMLSche…
#>  7 geonames:6252001 sdmx:TIME_PERIOD "\"2021\"^^<http://www.w3.org/2001/XMLSche…
#>  8 geonames:6252001 schema:name      "United States"                            
#>  9 geonames:6252001 sdmx:OBS_VALUE   "\"22000\"^^<http://www.w3.org/2001/XMLSch…
#> 10 geonames:6251999 sdmx:TIME_PERIOD "\"2021\"^^<http://www.w3.org/2001/XMLSche…
#> # ℹ 26 more rows
…
